1 0.00 50 3 0.360500000000 352
2 0.03 50 3 0.362200000000 355
3 0.06 50 3 0.383000000000 357
4 0.09 50 3 0.391900000000 360
5 0.12 50 3 0.405100000000 362
6 0.15 50 3 0.410500000000 365
7 0.18 50 3 0.426600000000 367
8 0.21 50 3 0.431900000000 370
9 0.24 50 3 0.448800000000 372
10 0.27 50 3 0.464100000000 375
11 0.30 50 3 0.471400000000 377
12 0.33 50 3 0.480500000000 380
13 0.36 50 3 0.489200000000 382
14 0.39 50 3 0.496900000000 385
15 0.42 50 3 0.511300000000 387
16 0.45 50 3 0.519400000000 389
17 0.48 50 3 0.533600000000 392
18 0.51 50 3 0.540600000000 394
19 0.54 50 3 0.552800000000 397
20 0.57 50 3 0.554200000000 399
21 0.60 50 3 0.571300000000 402
22 0.63 50 3 0.581100000000 404
23 0.66 50 3 0.593900000000 407
24 0.69 50 3 0.604400000000 409
25 0.72 50 3 0.614200000000 411
26 0.75 50 3 0.620400000000 414
27 0.78 50 3 0.624200000000 416
28 0.81 50 3 0.637800000000 419
29 0.84 50 3 0.641400000000 421
30 0.87 50 3 0.648800000000 424
31 0.90 50 3 0.663600000000 426
32 0.93 50 3 0.661200000000 429
33 0.96 50 3 0.673900000000 431
34 0.99 50 3 0.679400000000 433
35 1.02 50 3 0.694300000000 436
36 1.05 50 3 0.705100000000 438
37 1.08 50 3 0.718400000000 440
38 1.11 50 3 0.720500000000 443
39 1.14 50 3 0.725600000000 445
40 1.17 50 3 0.735100000000 448
41 1.20 50 3 0.734300000000 450
42 1.23 50 3 0.746400000000 452
43 1.26 50 3 0.743000000000 455
44 1.29 50 3 0.754000000000 457
45 1.32 50 3 0.760000000000 459
46 1.35 50 3 0.767700000000 462
47 1.38 50 3 0.772300000000 464
48 1.41 50 3 0.773700000000 466
49 1.44 50 3 0.790700000000 469
50 1.47 50 3 0.794200000000 471
51 1.50 50 3 0.801900000000 474
52 1.53 50 3 0.803200000000 476
53 1.56 50 3 0.805500000000 478
54 1.59 50 3 0.817000000000 481
55 1.62 50 3 0.821100000000 483
56 1.65 50 3 0.822700000000 485
57 1.68 50 3 0.831100000000 488
58 1.71 50 3 0.836400000000 490
59 1.74 50 3 0.835200000000 492
60 1.77 50 3 0.834500000000 495
61 1.80 50 3 0.849000000000 497
62 1.83 50 3 0.852300000000 499
63 1.86 50 3 0.861100000000 502
64 1.89 50 3 0.863500000000 504
65 1.92 50 3 0.855500000000 506
66 1.95 50 3 0.869400000000 509
67 1.98 50 3 0.871100000000 511
68 2.01 50 3 0.876300000000 513
69 2.04 50 3 0.876500000000 515
70 2.07 50 3 0.885500000000 518
71 2.10 50 3 0.881400000000 520
72 2.13 50 3 0.885300000000 522
73 2.16 50 3 0.890900000000 525
74 2.19 50 3 0.890200000000 527
75 2.22 50 3 0.899900000000 529
76 2.25 50 3 0.900900000000 532
77 2.28 50 3 0.901500000000 534
78 2.31 50 3 0.905700000000 536
79 2.34 50 3 0.903700000000 538
80 2.37 50 3 0.910600000000 541
81 2.40 50 3 0.914600000000 543
82 2.43 50 3 0.914300000000 545
83 2.46 50 3 0.920100000000 548
84 2.49 50 3 0.920800000000 550
85 2.52 50 3 0.921300000000 552
86 2.55 50 3 0.922300000000 554
87 2.58 50 3 0.926300000000 557
88 2.61 50 3 0.930800000000 559
89 2.64 50 3 0.930500000000 561
90 2.67 50 3 0.937400000000 563
91 2.70 50 3 0.934300000000 565
92 2.73 50 3 0.931200000000 568
93 2.76 50 3 0.938700000000 570
94 2.79 50 3 0.939300000000 572
95 2.82 50 3 0.943600000000 575
96 2.85 50 3 0.946300000000 577
97 2.88 50 3 0.945400000000 579
98 2.91 50 3 0.947100000000 581
99 2.94 50 3 0.947600000000 583
100 2.97 50 3 0.950600000000 586
101 3.00 50 3 0.948800000000 588
