1 -2.00 1000 4 4907 0.000570000000 14550
2 -1.96 1000 4 4947 0.000680000000 14696
3 -1.92 1000 4 4987 0.000930000000 14806
4 -1.88 1000 4 5027 0.001210000000 14932
5 -1.84 1000 4 5067 0.001590000000 15059
6 -1.80 1000 4 5107 0.001850000000 15192
7 -1.76 1000 4 5147 0.002900000000 15299
8 -1.72 1000 4 5187 0.003180000000 15395
9 -1.68 1000 4 5227 0.004420000000 15538
10 -1.64 1000 4 5267 0.004990000000 15661
11 -1.60 1000 4 5307 0.006780000000 15744
12 -1.56 1000 4 5347 0.007750000000 15858
13 -1.52 1000 4 5387 0.009190000000 16026
14 -1.48 1000 4 5427 0.011460000000 16121
15 -1.44 1000 4 5467 0.014210000000 16232
16 -1.40 1000 4 5507 0.016300000000 16359
17 -1.36 1000 4 5547 0.018950000000 16467
18 -1.32 1000 4 5587 0.022550000000 16589
19 -1.28 1000 4 5627 0.026550000000 16694
20 -1.24 1000 4 5667 0.030290000000 16834
21 -1.20 1000 4 5707 0.034500000000 16947
22 -1.16 1000 4 5747 0.039470000000 17070
23 -1.12 1000 4 5787 0.045870000000 17175
24 -1.08 1000 4 5827 0.051440000000 17291
25 -1.04 1000 4 5867 0.057490000000 17441
26 -1.00 1000 4 5907 0.063870000000 17531
27 -0.96 1000 4 5947 0.071050000000 17640
28 -0.92 1000 4 5987 0.079190000000 17764
29 -0.88 1000 4 6027 0.088550000000 17881
30 -0.84 1000 4 6067 0.095960000000 17985
31 -0.80 1000 4 6107 0.105830000000 18123
32 -0.76 1000 4 6147 0.115150000000 18244
33 -0.72 1000 4 6187 0.125020000000 18350
34 -0.68 1000 4 6227 0.136980000000 18472
35 -0.64 1000 4 6267 0.147460000000 18587
36 -0.60 1000 4 6307 0.159310000000 18710
37 -0.56 1000 4 6347 0.170400000000 18827
38 -0.52 1000 4 6387 0.183760000000 18947
39 -0.48 1000 4 6427 0.198670000000 19083
40 -0.44 1000 4 6467 0.208690000000 19178
41 -0.40 1000 4 6507 0.221970000000 19306
42 -0.36 1000 4 6547 0.236870000000 19406
43 -0.32 1000 4 6587 0.249350000000 19501
44 -0.28 1000 4 6627 0.263150000000 19656
45 -0.24 1000 4 6667 0.280350000000 19800
46 -0.20 1000 4 6707 0.295500000000 19912
47 -0.16 1000 4 6747 0.306380000000 19988
48 -0.12 1000 4 6787 0.322460000000 20114
49 -0.08 1000 4 6827 0.337400000000 20255
50 -0.04 1000 4 6867 0.352190000000 20334
51 0.00 1000 4 6907 0.364600000000 20443
52 0.04 1000 4 6947 0.380470000000 20588
53 0.08 1000 4 6987 0.393320000000 20688
54 0.12 1000 4 7027 0.412460000000 20826
55 0.16 1000 4 7067 0.424580000000 20936
56 0.20 1000 4 7107 0.439870000000 21092
57 0.24 1000 4 7147 0.453650000000 21174
58 0.28 1000 4 7187 0.469010000000 21296
59 0.32 1000 4 7227 0.480780000000 21409
60 0.36 1000 4 7267 0.498210000000 21516
61 0.40 1000 4 7307 0.510120000000 21628
62 0.44 1000 4 7347 0.521620000000 21743
63 0.48 1000 4 7387 0.536150000000 21879
64 0.52 1000 4 7427 0.551470000000 22012
65 0.56 1000 4 7467 0.566330000000 22083
66 0.60 1000 4 7507 0.575810000000 22242
67 0.64 1000 4 7547 0.592350000000 22333
68 0.68 1000 4 7587 0.602140000000 22454
69 0.72 1000 4 7627 0.615300000000 22553
70 0.76 1000 4 7667 0.626320000000 22671
71 0.80 1000 4 7707 0.637650000000 22798
72 0.84 1000 4 7747 0.647120000000 22937
73 0.88 1000 4 7787 0.659710000000 23047
74 0.92 1000 4 7827 0.671820000000 23143
75 0.96 1000 4 7867 0.680350000000 23272
76 1.00 1000 4 7907 0.691680000000 23422
77 1.04 1000 4 7947 0.701900000000 23508
78 1.08 1000 4 7987 0.711630000000 23618
79 1.12 1000 4 8027 0.722610000000 23780
80 1.16 1000 4 8067 0.730280000000 23874
81 1.20 1000 4 8107 0.740480000000 23993
82 1.24 1000 4 8147 0.749140000000 24113
83 1.28 1000 4 8187 0.756840000000 24187
84 1.32 1000 4 8227 0.765690000000 24326
85 1.36 1000 4 8267 0.770780000000 24438
86 1.40 1000 4 8307 0.781620000000 24559
87 1.44 1000 4 8347 0.787590000000 24689
88 1.48 1000 4 8387 0.797690000000 24790
89 1.52 1000 4 8427 0.802300000000 24905
90 1.56 1000 4 8467 0.809660000000 25052
91 1.60 1000 4 8507 0.817370000000 25145
92 1.64 1000 4 8547 0.822330000000 25234
93 1.68 1000 4 8587 0.829610000000 25355
94 1.72 1000 4 8627 0.835420000000 25480
95 1.76 1000 4 8667 0.843390000000 25634
96 1.80 1000 4 8707 0.848860000000 25755
97 1.84 1000 4 8747 0.853000000000 25849
98 1.88 1000 4 8787 0.858580000000 25994
99 1.92 1000 4 8827 0.864490000000 26090
100 1.96 1000 4 8867 0.868500000000 26206
101 2.00 1000 4 8907 0.873670000000 26310
102 2.04 1000 4 8947 0.879030000000 26441
103 2.08 1000 4 8987 0.882280000000 26565
104 2.12 1000 4 9027 0.885200000000 26688
105 2.16 1000 4 9067 0.889500000000 26771
106 2.20 1000 4 9107 0.896130000000 26913
107 2.24 1000 4 9147 0.899360000000 26972
108 2.28 1000 4 9187 0.903220000000 27151
109 2.32 1000 4 9227 0.904790000000 27261
110 2.36 1000 4 9267 0.910190000000 27379
111 2.40 1000 4 9307 0.913910000000 27486
112 2.44 1000 4 9347 0.914460000000 27577
113 2.48 1000 4 9387 0.919780000000 27747
114 2.52 1000 4 9427 0.921460000000 27815
115 2.56 1000 4 9467 0.925530000000 27919
116 2.60 1000 4 9507 0.927550000000 28075
117 2.64 1000 4 9547 0.931630000000 28164
118 2.68 1000 4 9587 0.932480000000 28286
119 2.72 1000 4 9627 0.936510000000 28419
120 2.76 1000 4 9667 0.939480000000 28548
121 2.80 1000 4 9707 0.940820000000 28635
122 2.84 1000 4 9747 0.942250000000 28788
123 2.88 1000 4 9787 0.946140000000 28849
124 2.92 1000 4 9827 0.948630000000 29009
125 2.96 1000 4 9867 0.949090000000 29165
126 3.00 1000 4 9907 0.952840000000 29219
127 3.04 1000 4 9947 0.953060000000 29333
128 3.08 1000 4 9987 0.955520000000 29439
129 3.12 1000 4 10027 0.957110000000 29580
130 3.16 1000 4 10067 0.958520000000 29711
131 3.20 1000 4 10107 0.960300000000 29825
132 3.24 1000 4 10147 0.961580000000 29876
133 3.28 1000 4 10187 0.962490000000 30064
134 3.32 1000 4 10227 0.964420000000 30125
135 3.36 1000 4 10267 0.965510000000 30259
136 3.40 1000 4 10307 0.967420000000 30426
137 3.44 1000 4 10347 0.968300000000 30542
138 3.48 1000 4 10387 0.969660000000 30626
139 3.52 1000 4 10427 0.970620000000 30728
140 3.56 1000 4 10467 0.972200000000 30811
141 3.60 1000 4 10507 0.973570000000 30952
142 3.64 1000 4 10547 0.974200000000 31068
143 3.68 1000 4 10587 0.974600000000 31150
144 3.72 1000 4 10627 0.976070000000 31320
145 3.76 1000 4 10667 0.976450000000 31473
146 3.80 1000 4 10707 0.977690000000 31568
147 3.84 1000 4 10747 0.979050000000 31658
148 3.88 1000 4 10787 0.979230000000 31765
149 3.92 1000 4 10827 0.980820000000 31918
150 3.96 1000 4 10867 0.981170000000 32048
151 4.00 1000 4 10907 0.981880000000 32134
